oci,citing,cited,creation,timespan,journal_sc,author_sc
0200100080036010002040204020237020002003701070806000701-02001000007362801030109076300010563010902006302,10.1080/10242422.2020.1786071,10.1007/s13197-015-1920-2,2020-07-01,P5Y0M6D,yes,no
0200100080036010002040204020237020002003701070806000701-020010001063619371118242729141217370200000537010137000107,10.1080/10242422.2020.1786071,10.1016/j.biortech.2005.11.017,2020-07-01,P13Y6M,no,no
0200100080036010002040204020237020002003701070806000701-0200100020136191500000001060711,10.1080/10242422.2020.1786071,10.1021/jf000167b,2020-07-01,P19Y10M,no,no
0200100080036010002040204020237020002003701070806000701-0200105050636101217272422370201370200000937023701,10.1080/10242422.2020.1786071,10.1556/achrom.21.2009.2.1,2020-07-01,P11Y1M,no,no
0200100080036010002040204020237020002003701070806000701-0200100010636280103060963070003335809095900000001046305,10.1080/10242422.2020.1786071,10.1016/s1369-703x(99)00014-5,2020-07-01,P21Y1M,no,no
0200100080036010002040204020237020002003701070806000701-0200101050936000000010006000809,10.1080/10242422.2020.1786071,10.1159/000106089,2020-07-01,P12Y8M7D,no,no
0200100080036010002040204020237020002003701070806000701-0200100020136191509070004080427,10.1080/10242422.2020.1786071,10.1021/jf970484r,2020-07-01,P22Y1M,no,no
0200100080036010002040204020237020002003701070806000701-020010001063619371118242729141217370200000537000337000106,10.1080/10242422.2020.1786071,10.1016/j.biortech.2005.03.016,2020-07-01,P14Y5M,no,no
0200100080036010002040204020237020002003701070806000701-0200100010636280001040163000202095809095900000105056306,10.1080/10242422.2020.1786071,10.1016/s0141-0229(99)00155-6,2020-07-01,P20Y5M,no,no
